<?xml version="1.0" encoding="UTF-8" standalone="no"?>
<svg
   xmlns="http://www.w3.org/2000/svg"
   viewBox="0 0 1000 1000"
>
   <path
     d="m 772.9 468.7 C 653 468.7 555.8 565.2 555.8 684.2 C 555.8 803.2 653 899.7 772.9 899.7 C 892.8 899.7 990 803.2 990 684.2 C 990 565.2 892.8 468.7 772.9 468.7 Z M 771.9 863.8 C 673 863.8 592.8 784.2 592.8 686 C 592.8 587.8 673 508.2 771.9 508.2 C 870.8 508.2 951 587.8 951 686 C 951 784.3 870.8 863.8 771.9 863.8 Z M 550 790 L 550 849 C 550 860 537 874 523 874 L 145 874 C 134 874 120 863 120 849 L 120 132 C 120 118 131 107 147 107 L 525 107 C 539 107 550 118 550 132 L 550 594 C 550 560 625 480 660 470 V 86 C 660 41 620 11 575 11 H 85 C 44 11 10 45 10 86 V 915 C 10 955 44 990 85 990 H 580 C 620 990 660 950 660 910 V 905 C 606 877 560 830 550 790 Z M 753.8 657.3 H 748.6 H 709.3 H 695.2 C 684.3 657.3 675.5 666.1 675.5 676.9 C 675.5 687.8 684.2 696.5 695 696.5 H 753.8 V 755.3 C 753.8 766 762.5 774.8 773.4 774.8 C 784.2 774.8 793 766 793 755.1 V 741 V 701.7 V 696.5 H 851.8 C 862.3 696.5 871.3 687.7 871.3 676.9 C 871.3 666 862.6 657.3 851.8 657.3 H 793 V 598.5 C 793 587.8 784.3 579 773.4 579 C 762.6 579 753.8 587.9 753.8 598.5 Z" fill="#fff" />
</svg>
